<?xml version="1.0" encoding="utf-8"?>
<!-- Generator: Adobe Illustrator 16.0.0, SVG Export Plug-In . SVG Version: 6.00 Build 0)  -->
<!DOCTYPE svg PUBLIC "-//W3C//DTD SVG 1.1//EN" "http://www.w3.org/Graphics/SVG/1.1/DTD/svg11.dtd">
<svg version="1.1" id="Layer_1" xmlns="http://www.w3.org/2000/svg" xmlns:xlink="http://www.w3.org/1999/xlink" x="0px" y="0px"
	 width="271px" height="219px" viewBox="0 0 271 219" enable-background="new 0 0 271 219" xml:space="preserve">
<g transform="translate(0 -1)">
	<path fill="#82BC00" d="M87.094,203.898c-2.731-0.006-4.119-2.035-4.117-4.403c-0.002-2.53,1.717-4.554,4.37-4.554
		c1.025,0.005,1.808,0.281,2.33,0.585l-0.018,1.61c-0.575-0.418-1.287-0.666-2.169-0.666c-1.57,0-2.634,1.228-2.632,2.944
		c-0.002,1.604,0.883,2.938,2.6,2.943c0.849,0,1.477-0.272,2.06-0.621l0.503,1.258C89.352,203.454,88.269,203.893,87.094,203.898
		 M96.509,203.712l-0.358-0.798c-0.543,0.51-1.336,0.984-2.53,0.979c-1.498,0-2.724-1.03-2.724-2.696
		c0.003-1.748,1.318-2.727,3.537-2.817l1.591-0.052c0.005-0.076,0-0.211,0-0.258c0.005-1.186-0.758-1.619-1.717-1.619
		c-0.978,0-1.696,0.338-2.22,0.687l-0.633-1.217c1.103-0.753,2.113-0.976,3.231-0.976c1.952,0,3.24,0.823,3.234,3.039v3.127
		c0.006,1.625,0.038,2.256,0.164,2.601H96.509z M96.009,199.718l-1.391,0.056c-1.288,0.035-1.845,0.489-1.84,1.277
		c0,0.764,0.5,1.322,1.474,1.322c0.886,0,1.449-0.394,1.757-0.687V199.718z M104.593,196.939c-0.308-0.166-0.648-0.236-0.956-0.236
		c-0.508,0-1.156,0.328-1.717,0.848v6.16h-1.879l0.005-8.543h1.57l0.23,0.934c0.963-0.879,1.634-1.155,2.389-1.15
		c0.399,0,0.812,0.146,1.086,0.323L104.593,196.939z M110.162,203.898c-2.512,0-4.572-1.471-4.572-4.383
		c0.003-2.646,1.974-4.564,4.628-4.564c0.503,0,0.869,0.061,1.192,0.105v-4.135h1.878v12.299
		C112.586,203.605,111.514,203.898,110.162,203.898L110.162,203.898z M111.412,196.652c-0.308-0.092-0.58-0.146-1.121-0.146
		c-1.59,0-2.82,1.096-2.822,2.909c0.002,1.681,1.035,2.908,2.888,2.908c0.383,0,0.797-0.076,1.053-0.162L111.412,196.652z"/>
	<path fill="#82BC00" d="M42.839,88.702c-0.058-0.22-0.282-0.36-0.503-0.304c0,0-0.004,0.001-0.01,0.005v-0.004
		c-0.009,0.004-0.025,0.009-0.037,0.012c-0.265,0.071-1.808,0.438-3.762,0.813c-0.619,0.118-1.273,0.233-1.942,0.341
		c-4.367,0.658-6.516,0.104-7.27-0.195c-0.039-0.017-0.079-0.024-0.12-0.043c-0.138-0.062-0.214-0.105-0.214-0.105v0.023
		c-0.44-0.162-0.919-0.231-1.409-0.162c-1.651,0.229-2.795,1.742-2.568,3.392c0.231,1.643,1.742,2.791,3.387,2.56
		c0.511-0.064,0.964-0.276,1.352-0.564v0.02c0.038-0.028,0.074-0.067,0.117-0.099c0.058-0.052,0.121-0.093,0.176-0.149
		c1.356-1.083,4.194-2.255,6.261-3.029c1.846-0.679,3.984-1.404,6.242-2.006C42.758,89.15,42.892,88.922,42.839,88.702
		L42.839,88.702z M47.33,91.187c-0.338,0.41-0.643,0.804-0.919,1.163c-0.231,0.277-0.509,0.591-0.805,0.898
		c-0.504,0.517-2.345,2.312-3.941,2.58c-0.033,0.001-0.073,0-0.106,0.001c-1.51,0.215-2.557,1.604-2.35,3.111
		c0.204,1.506,1.595,2.554,3.103,2.349c1.436-0.201,2.446-1.475,2.357-2.894c0-0.04,0.005-0.076,0-0.104
		c-0.002-0.021,0-0.049-0.005-0.071c0.041-1.155,0.46-2.226,0.78-2.882c0.364-0.677,0.879-1.486,1.619-2.458
		c0.565-0.678,0.923-1.167,0.923-1.178c0.135-0.181,0.097-0.441-0.083-0.573C47.73,90.992,47.475,91.017,47.33,91.187L47.33,91.187z
		 M69.083,87.206c-0.088,0-0.182-0.004-0.275-0.007c-7.283-0.128-11.321,1.143-13.53,2.761l0.01-0.012
		c-3.873,2.53-6.112,8.274-6.112,8.274c-0.51,0.805-0.54,1.864,0.005,2.725c0.753,1.195,2.338,1.555,3.535,0.797
		c0.956-0.603,1.365-1.731,1.11-2.774l0.013,0.003c0,0-0.013-0.02-0.027-0.058c-0.034-0.137-0.081-0.267-0.145-0.398
		c-0.272-0.89-0.631-2.958,1.026-5.071c0.02-0.028,0.042-0.061,0.065-0.089c0.028-0.032,0.063-0.069,0.094-0.097
		c3.246-3.571,8.48-4.97,13.062-5.459C70.709,87.513,69.483,87.218,69.083,87.206L69.083,87.206z M202.867,4.695
		c0,0,0.998,1.23,1.229,2.725l0.003-0.021c0.148,0.687,0.27,1.441,0.355,2.179c0.283,2.234,0.379,4.365,0.379,4.365
		c0.005,0.157,0.138,0.288,0.302,0.286l0.007,0.002c0.166-0.009,0.295-0.15,0.295-0.314v-0.005
		c-0.007-0.365-0.013-0.725-0.011-1.081c0-2.423,0.185-4.654,0.349-6.18c0.014-0.141,0.033-0.278,0.045-0.395
		c0.012-0.052,0.012-0.095,0.019-0.139c0.202-1.414,0.538-1.903,0.538-1.903h-0.01c0.217-0.405,0.312-0.869,0.238-1.35
		c-0.175-1.189-1.289-2.016-2.482-1.841c-1.188,0.178-2.014,1.293-1.832,2.487c0.066,0.457,0.281,0.87,0.578,1.182L202.867,4.695z
		 M194.548,9.159l-0.001,0.012c0,0,0.048-0.002,0.139,0.008c0.053,0.006,0.107,0.01,0.164,0.013
		c0.456,0.046,1.364,0.188,2.098,0.606c0.142,0.099,0.285,0.19,0.434,0.299c0.02,0.019,0.041,0.023,0.061,0.042l-0.004-0.012
		c0.633,0.47,1.314,1.009,1.938,1.553c1.652,1.418,3.052,2.831,3.054,2.839c0.058,0.059,0.134,0.093,0.216,0.091
		c0.073,0,0.153-0.027,0.213-0.091c0.119-0.109,0.119-0.303,0.004-0.421c-2.051-2.154-3.758-4.389-4.793-5.816
		c-0.668-1.062-0.851-1.976-0.851-1.976l-0.002,0.003c-0.274-1.193-1.416-2.005-2.647-1.811c-1.287,0.186-2.183,1.389-1.986,2.684
		C192.736,8.23,193.556,9.002,194.548,9.159L194.548,9.159z M190.291,171.365c0,0,6.475,6.483,3.602,16.461
		c-2.16,6.059-8.314,9.922-9.367,10.549c-1.217,0.469-2.082,1.65-2.08,3.035c-0.002,1.797,1.457,3.256,3.252,3.25
		c1.797,0,3.256-1.453,3.254-3.256v-0.005c0.396-2.717,1.683-3.919,2.947-5.521c2.135-3.059,3.621-6.457,4.482-8.719
		C198.429,182.762,198.6,176.838,190.291,171.365L190.291,171.365z M207.621,21.535c0.056,0,0.111-0.014,0.164-0.043
		c0.01-0.014,0.203-0.135,0.467-0.381c0.904-0.691,2.408-0.365,2.408-0.365l-0.012-0.011c0.055,0.003,0.104,0.024,0.157,0.027
		c1.005,0.065,1.869-0.699,1.933-1.704c0.063-0.997-0.695-1.871-1.695-1.926c-0.928-0.066-1.729,0.586-1.896,1.475
		c-0.078,0.253-0.41,1.195-1.23,1.913c-0.189,0.145-0.371,0.315-0.539,0.528c-0.086,0.123-0.077,0.289,0.021,0.392
		C207.459,21.505,207.537,21.535,207.621,21.535L207.621,21.535z M207.673,16.693c0.09-0.001,0.183-0.041,0.247-0.117
		c0,0-0.004-0.006,0.009-0.012c0-0.008,0.005-0.014,0.013-0.023c0.082-0.106,0.311-0.42,0.604-0.854
		c0.729-0.984,1.33-1.616,1.811-2.027c0.653-0.563,1.518-0.738,1.518-0.738l-0.01-0.005c1.002-0.235,1.674-1.202,1.519-2.233
		c-0.166-1.092-1.183-1.849-2.278-1.682c-1.093,0.162-1.843,1.181-1.679,2.27c0.004,0.035,0.015,0.057,0.019,0.087l-0.002,0.009
		c0,0,0.172,0.701-0.158,1.637c-0.203,0.534-0.481,1.105-0.777,1.602c-0.163,0.27-0.325,0.519-0.469,0.74
		c-0.196,0.27-0.401,0.558-0.617,0.877c-0.094,0.132-0.053,0.317,0.072,0.413C207.55,16.679,207.613,16.693,207.673,16.693
		L207.673,16.693z M264.938,83.599c-0.107-0.054-1.689-0.802-2.595-1.557c-0.043-0.045-0.089-0.089-0.142-0.133
		c-0.026-0.025-0.051-0.044-0.074-0.067c-1.289-1.155-2.993-2.785-4.616-4.638c-0.11-0.129-0.297-0.142-0.423-0.035
		c-0.129,0.11-0.139,0.294-0.034,0.429c0.007,0,1.243,1.476,2.479,3.206c0.58,0.79,1.142,1.65,1.586,2.433
		c0.738,1.277,0.535,2.419,0.535,2.419l0.016-0.006c-0.062,1.112,0.671,2.149,1.794,2.416c1.274,0.313,2.552-0.457,2.856-1.735
		C266.602,85.188,265.992,84.042,264.938,83.599L264.938,83.599z M203.511,200.728c0-0.011-0.007-0.015-0.009-0.026
		c-0.109-0.25-0.248-0.484-0.418-0.701c-0.812-1.484-1.174-2.843-1.174-2.843l-0.004-0.005c-0.108-0.398-0.226-0.838-0.34-1.318
		c-0.58-2.312-1.256-5.473-1.683-8.811h0.004l-0.004-0.01c-0.03-0.232-0.229-0.389-0.459-0.358c-0.231,0.019-0.39,0.222-0.371,0.449
		c0.002,0.01,0.388,3.614,0.382,7.063c0,1.383-0.064,2.737-0.229,3.808c0,0-0.174,1.021-0.895,2.069
		c-0.037,0.047-0.084,0.107-0.115,0.162c-0.041,0.051-0.072,0.106-0.117,0.162h0.027c-0.242,0.424-0.39,0.924-0.394,1.459
		c0,1.656,1.342,3.004,3.004,3.004c1.659,0,3.009-1.348,3.004-3.004c0.007-0.389-0.079-0.768-0.218-1.111L203.511,200.728z
		 M269.043,74.497c-0.428-0.104-0.857-0.073-1.25,0.064h-0.004c-0.023,0.006-0.055,0.024-0.088,0.034
		c-0.26,0.104-1.143,0.362-3.299,0.386l0.008,0.006c-0.11,0-0.203-0.003-0.311,0c-1.703,0-3.898-0.074-6.173-0.336
		c-0.168-0.015-0.323,0.101-0.339,0.269c-0.02,0.165,0.089,0.314,0.259,0.333c0,0,0,0.002,0.003,0
		c0.008,0.004,0.01,0.004,0.01,0.004c0.215,0.028,2.217,0.312,4.303,0.772c0.785,0.158,1.595,0.377,2.312,0.608
		c1.838,0.629,2.309,1.288,2.309,1.288l0.004-0.007c0.293,0.392,0.713,0.693,1.22,0.815c1.175,0.29,2.356-0.427,2.644-1.598
		C270.929,75.964,270.216,74.776,269.043,74.497L269.043,74.497z M253.47,66.912c-1.006-0.022-1.843,0.769-1.868,1.771
		c0.002,0.009,0,0.015,0,0.024c0.012,0.202,0.088,1.697-0.604,2.514c-0.252,0.229-0.395,0.4-0.398,0.405
		c-0.094,0.115-0.084,0.284,0.008,0.394c0.064,0.063,0.141,0.095,0.233,0.097c0.052,0.002,0.112-0.01,0.157-0.046
		c0.199-0.122,0.359-0.258,0.508-0.407c0.766-0.776,1.768-1.051,2.182-1.136c0.034-0.009,0.078-0.014,0.116-0.027
		c0.05-0.007,0.077-0.01,0.077-0.01v-0.003c0.76-0.205,1.333-0.876,1.354-1.704C255.266,67.779,254.472,66.938,253.47,66.912
		L253.47,66.912z M258.729,71.047c1.01-0.29,1.793-0.211,2.133-0.138c0.024,0.008,0.039,0.012,0.061,0.016
		c0.031,0.004,0.061,0.004,0.085,0.012c0.034,0.008,0.05,0.014,0.05,0.014l-0.007-0.006c1.028,0.178,2.043-0.457,2.291-1.493
		c0.259-1.068-0.396-2.152-1.472-2.413c-1.074-0.265-2.153,0.396-2.418,1.468c0,0-0.182,0.763-1.291,1.682h0.008
		c-0.426,0.354-0.986,0.761-1.725,1.215c-0.476,0.256-0.808,0.464-0.916,0.524c-0.002,0.004-0.006,0.002-0.01,0.008
		c-0.009,0.009-0.014,0.009-0.014,0.009c-0.143,0.088-0.189,0.27-0.105,0.407c0.059,0.095,0.162,0.152,0.27,0.148
		c0.046,0.002,0.093-0.007,0.143-0.034c0.34-0.192,0.646-0.359,0.932-0.534c0.197-0.107,0.424-0.226,0.664-0.342
		C257.812,71.392,258.273,71.196,258.729,71.047L258.729,71.047z M206.109,176.006c-0.027,0-0.058,0.01-0.094,0.02
		c-1.516,0.264-2.669-0.58-3.027-0.878c-0.291-0.293-0.494-0.45-0.51-0.454c-0.164-0.121-0.391-0.107-0.537,0.035
		c-0.146,0.137-0.17,0.354-0.06,0.529c0.19,0.283,0.401,0.521,0.624,0.728h-0.002c0,0,1.225,1.323,1.58,2.716
		c0.121,1.268,1.179,2.258,2.482,2.258c1.375,0,2.504-1.115,2.504-2.494c0-1.385-1.125-2.504-2.508-2.504
		c-0.104-0.006-0.199,0.02-0.297,0.024l0.006-0.01C206.214,175.985,206.168,176,206.109,176.006L206.109,176.006z M209.666,186.211
		l0.006-0.01c-0.031,0.004-0.066-0.006-0.1-0.011c-0.117-0.026-0.25-0.03-0.373-0.04c-0.942-0.137-1.828-0.602-2.289-0.874
		c-0.713-0.53-1.612-1.298-2.742-2.429c-0.588-0.651-1.036-1.08-1.036-1.086c-0.164-0.156-0.421-0.151-0.584,0.006
		c-0.157,0.156-0.167,0.418-0.015,0.58c0.348,0.384,0.688,0.736,1.014,1.055c0.287,0.329,0.613,0.697,0.941,1.122
		c0.369,0.459,0.76,0.974,1.104,1.494l-0.046-0.052c0.736,1.385,0.803,2.299,0.791,2.697c-0.006,0.076-0.023,0.152-0.027,0.232
		c0.004,1.52,1.234,2.752,2.758,2.752c1.52,0,2.752-1.232,2.752-2.752C211.822,187.578,210.898,186.483,209.666,186.211
		L209.666,186.211z M254.295,74.17c-1.236-0.216-2.477-0.31-3.695-0.309c-8.598,0.007-16.613,4.683-19.979,5.317
		c-0.69,0.112-1.328,0.164-1.918,0.163c-2.762-0.023-4.035-1.115-4.844-2.472c-0.297-0.507-0.504-1.065-0.648-1.624
		c10.783-8.899,16.275-18.738,13.033-25.397c-2.033-4.17-7.166-6.409-14.071-6.757c-0.834-3.136-3.681-5.457-7.082-5.458
		c-3.907,0-7.097,3.066-7.31,6.922c-3.5,0.793-7.158,1.891-10.894,3.296c-0.06-0.039-0.11-0.075-0.166-0.117
		c-1.069-0.851-1.868-1.998-1.879-3.912c-0.002-0.934,0.202-2.069,0.72-3.42c0.723-1.744,3.066-4.845,5.243-8.649
		c2.179-3.824,4.235-8.439,4.382-13.523c0.012-0.429-0.309-0.8-0.74-0.853c-0.432-0.048-0.824,0.242-0.91,0.665
		c-0.004,0.004-0.117,0.542-0.403,1.502c-0.878,2.881-3.371,9.328-9.039,14.366c-2.964,2.171-5.028,5.419-5.086,9.419
		c-0.013,1.904,0.614,3.996,2.463,5.417c0.378,0.292,0.757,0.567,1.162,0.826c-1.302,0.566-2.614,1.163-3.923,1.808
		c-16.166,7.874-27.885,19.029-30.747,28.194c-9.108-1.594-18.878-2.189-28.417-2.195c-22.929,0-44.465,3.408-51.609,4.662
		c-2.169,0.336-12.801,1.827-25.826,1.225c-2.31-0.185-6.44-0.854-8.071-3.245c-0.571-1.086-1.712-1.829-3.025-1.829
		c-1.886,0-3.42,1.525-3.416,3.413c-0.004,1.889,1.528,3.425,3.411,3.421c0.404,0.002,0.783-0.077,1.137-0.2l-0.008,0.027
		c0,0,3.005-0.878,9.743-0.106c4.267,0.661,12.053,1.047,26.244,0.118c7.21-0.345,13.982-0.504,20.339-0.503
		c38.808,0,62.144,6.038,75.62,14.396c13.459,8.377,17.248,18.889,17.279,28.636c0.008,6.863-1.965,13.33-3.986,18.129
		c-11.096,19.35-5.959,18.659-0.98,20.557c13.131,4.195,13.903,15.021,13.903,15.021c3.022-10.384-7.782-15.573-7.782-15.573
		c-8.263-4.189-4.24-15.346-2.275-19.695c0.283-0.563,0.551-1.108,0.81-1.666c0.039-0.067,0.069-0.121,0.069-0.121l-0.016,0.006
		c5.264-11.055,7.635-20.402,7.637-28.316c0.01-7.783-2.305-14.175-6.293-19.282c-1.07-1.371-2.274-2.644-3.555-3.826
		c5.393-1.402,11.105-3.492,16.846-6.288c4.779-2.332,9.14-4.956,13.027-7.728c1.85,2.651,4.258,4.259,5.629,5.025
		c0.028,0.015,0.061,0.025,0.086,0.045c0.598,0.326,0.979,0.489,0.979,0.489l-0.018-0.033c0.975,0.387,2.008,0.566,3.033,0.568
		l0.018-0.002c3.402-0.03,6.746-1.561,8.232-2.797c4.047-3.026,8.412-4.559,11.768-5.319c1.683-0.38,3.111-0.572,4.104-0.659
		c1.01-0.101,1.555-0.1,1.555-0.1c0.434-0.001,0.795-0.329,0.83-0.766C255.027,74.631,254.725,74.248,254.295,74.17L254.295,74.17z"
		/>
	<path fill="#82BC00" d="M37.078,162.77c0.104,8.072,5.895,14.074,14.695,14.074c4.346,0.006,8.487-1.232,12.317-3.408l2.789,7.039
		c-4.863,3.515-11.384,5.275-17.077,5.271c-16.449,0-23.8-12.527-23.798-25.871c0-13.978,8.182-25.354,21.429-25.353
		c13.043,0.004,21.112,10.043,21.11,25.253c-0.003,0.725,0.002,1.756-0.005,3.001L37.078,162.77z M47.224,142.906
		c-6.417,0-10.243,5.789-10.243,11.898h20.38C57.265,149.116,54.054,142.909,47.224,142.906L47.224,142.906z M104.108,184.721
		l-2.07-4.549c-3.106,2.893-7.66,5.588-14.49,5.584c-8.593,0-15.628-5.902-15.625-15.42c0-10.037,7.551-15.627,20.286-16.144
		l9.109-0.31c0-0.408,0.003-1.239,0-1.45c0-6.828-4.345-9.313-9.831-9.315c-5.59,0.002-9.726,1.973-12.734,3.932l-3.624-6.934
		c6.317-4.35,12.114-5.58,18.532-5.584c11.179,0.004,18.523,4.658,18.521,17.391l-0.003,17.9
		c-0.002,9.314,0.205,12.939,0.924,14.898H104.108z M101.214,161.852l-7.975,0.311c-7.345,0.207-10.558,2.791-10.558,7.344
		c0.002,4.349,2.899,7.555,8.486,7.561c5.074,0,8.28-2.283,10.045-3.934L101.214,161.852z M136.877,134.541
		c-7.659-0.002-13.561,1.758-18.009,3.305l-0.007,56.938c0.936,3.328,3.607,9.115,10.76,9.119l0.003-19.49
		c2.17,0.839,4.453,1.354,7.349,1.354c13.968,0,25.461-10.241,25.461-26.286C162.438,144.268,153.332,134.543,136.877,134.541
		 M136.453,176.971c-2.791-0.006-4.553-0.521-6.828-1.449l0.007-30.945c1.758-0.518,3.722-0.828,6.62-0.828
		c8.281,0.002,15.108,5.072,15.106,16.25C151.355,170.347,145.771,176.965,136.453,176.971"/>
	<g transform="translate(0 117.241)">
		<defs>
			<filter id="Adobe_OpacityMaskFilter" filterUnits="userSpaceOnUse" x="0" y="0.188" width="26.315" height="68.312">
				<feColorMatrix  type="matrix" values="1 0 0 0 0  0 1 0 0 0  0 0 1 0 0  0 0 0 1 0"/>
			</filter>
		</defs>
		<mask maskUnits="userSpaceOnUse" x="0" y="0.188" width="26.315" height="68.312" id="b">
			<g filter="url(#Adobe_OpacityMaskFilter)">
				<polygon id="a" fill="#FFFFFF" points="0,0.189 0,68.5 26.314,68.5 26.314,0.189 				"/>
			</g>
		</mask>
		<path mask="url(#b)" fill="#82BC00" d="M23.437,55.351c-2.974,2.283-6.724,3.172-7.253,3.287
			c-0.788,0.121-1.422,0.132-1.901,0.137c-2.692-0.005-3.517-1.247-3.517-5.178l0.01-53.409c-7.151,0-9.818,5.786-10.768,9.12
			L0,58.255c-0.002,5.797,2.899,10.244,10.243,10.244c2.027,0.006,4.004-0.277,6.123-1.064v0.01c0.045-0.01,0.088-0.035,0.131-0.057
			c0.065-0.02,0.128-0.045,0.197-0.069c4.168-1.51,7.748-4.505,9.621-6.226C25.113,59.335,24.146,57.402,23.437,55.351"/>
	</g>
	<polygon fill="#82BC00" points="152.506,206.779 141.409,206.779 141.409,200.643 152.506,200.643 152.506,188.491 
		159.389,188.491 159.389,200.643 170.609,200.643 170.609,206.779 159.389,206.779 159.389,219.241 152.506,219.241 	"/>
</g>
</svg>
